Analysis Results Standardについて
…
準備

ARDを作成するための準備としてDummy dataを用意します。

adae <- pharmaverseadam::adae
adsl <- pharmaverseadam::adsl

adae

# A tibble: 1,191 × 107
   STUDYID DOMAIN USUBJID AESEQ AESPID AETERM AELLT AELLTCD AEDECOD AEPTCD AEHLT
   <chr>   <chr>  <chr>   <dbl> <chr>  <chr>  <chr>   <dbl> <chr>    <dbl> <chr>
 1 CDISCP… AE     01-701…     1 E07    APPLI… APPL…      NA APPLIC…     NA HLT_…
 2 CDISCP… AE     01-701…     2 E08    APPLI… APPL…      NA APPLIC…     NA HLT_…
 3 CDISCP… AE     01-701…     3 E06    DIARR… DIAR…      NA DIARRH…     NA HLT_…
 4 CDISCP… AE     01-701…     2 E09    ERYTH… LOCA…      NA ERYTHE…     NA HLT_…
 5 CDISCP… AE     01-701…     1 E08    ERYTH… ERYT…      NA ERYTHE…     NA HLT_…
 6 CDISCP… AE     01-701…     4 E08    ERYTH… ERYT…      NA ERYTHE…     NA HLT_…
 7 CDISCP… AE     01-701…     3 E10    ATRIO… AV B…      NA ATRIOV…     NA HLT_…
 8 CDISCP… AE     01-701…     1 E04    APPLI… APPL…      NA APPLIC…     NA HLT_…
 9 CDISCP… AE     01-701…     2 E05    APPLI… APPL…      NA APPLIC…     NA HLT_…
10 CDISCP… AE     01-701…     1 E08    APPLI… APPL…      NA APPLIC…     NA HLT_…
# ℹ 1,181 more rows
# ℹ 96 more variables: AEHLTCD <dbl>, AEHLGT <chr>, AEHLGTCD <dbl>,
#   AEBODSYS <chr>, AEBDSYCD <dbl>, AESOC <chr>, AESOCCD <dbl>, AESEV <chr>,
#   AESER <chr>, AEACN <chr>, AEREL <chr>, AEOUT <chr>, AESCAN <chr>,
#   AESCONG <chr>, AESDISAB <chr>, AESDTH <chr>, AESHOSP <chr>, AESLIFE <chr>,
#   AESOD <chr>, AEDTC <chr>, AESTDTC <chr>, AEENDTC <chr>, AESTDY <dbl>,
#   AEENDY <dbl>, TRTSDT <date>, TRTEDT <date>, DTHDT <date>, EOSDT <date>, …
…
